<?xml version="1.0" encoding="utf-8"?>
<!-- Generator: Adobe Illustrator 16.0.0, SVG Export Plug-In . SVG Version: 6.00 Build 0)  -->
<!DOCTYPE svg PUBLIC "-//W3C//DTD SVG 1.1//EN" "http://www.w3.org/Graphics/SVG/1.1/DTD/svg11.dtd">
<svg version="1.1" id="Layer_1" xmlns="http://www.w3.org/2000/svg" xmlns:xlink="http://www.w3.org/1999/xlink" x="0px" y="0px"
	 width="179.5px" height="115px" viewBox="0 0 179.5 115" enable-background="new 0 0 179.5 115" xml:space="preserve">
<g>
	<path fill="#333333" d="M18.843,83.332c-1.064-1.165-2.173-1.963-3.325-2.394c-1.153-0.431-2.527-0.646-4.123-0.646
		c-1.546,0-2.869,0.152-3.971,0.456c-1.103,0.304-2.008,0.741-2.717,1.312c-0.71,0.569-1.229,1.248-1.559,2.032
		c-0.329,0.786-0.494,1.673-0.494,2.66c0,0.963,0.165,1.768,0.494,2.413c0.329,0.646,0.836,1.191,1.521,1.634
		c0.684,0.444,1.563,0.824,2.641,1.141c1.076,0.316,2.362,0.627,3.857,0.931c1.494,0.304,2.85,0.634,4.065,0.988
		s2.248,0.798,3.098,1.33c0.848,0.532,1.501,1.19,1.957,1.976c0.455,0.786,0.684,1.773,0.684,2.964c0,2.204-0.843,3.89-2.527,5.055
		s-4.009,1.748-6.973,1.748c-2.179,0-4.11-0.336-5.795-1.008c-1.686-0.671-3.249-1.729-4.693-3.173l0.57-0.494
		c1.368,1.42,2.855,2.445,4.465,3.078c1.608,0.634,3.439,0.95,5.491,0.95c2.685,0,4.807-0.5,6.365-1.501
		c1.558-1,2.337-2.514,2.337-4.541c0-1.013-0.178-1.868-0.532-2.565c-0.355-0.696-0.899-1.298-1.634-1.805
		c-0.735-0.506-1.672-0.937-2.812-1.292c-1.14-0.354-2.482-0.684-4.027-0.988c-1.495-0.278-2.819-0.575-3.972-0.893
		c-1.152-0.316-2.128-0.722-2.926-1.216s-1.4-1.114-1.805-1.862c-0.406-0.747-0.608-1.678-0.608-2.793
		c0-1.165,0.222-2.197,0.665-3.097s1.076-1.659,1.9-2.28c0.822-0.62,1.811-1.089,2.964-1.406c1.152-0.316,2.451-0.475,3.895-0.475
		c1.723,0,3.224,0.247,4.503,0.741s2.451,1.324,3.516,2.488L18.843,83.332z"/>
	<path fill="#333333" d="M40.996,106.74h-0.76V95.758c0-5.522-1.824-8.283-5.472-8.283c-0.912,0-1.812,0.177-2.698,0.531
		c-0.887,0.355-1.704,0.836-2.451,1.444s-1.4,1.324-1.957,2.147c-0.558,0.823-0.963,1.716-1.216,2.679v12.464h-0.76V79h0.76v13.11
		c0.405-0.811,0.905-1.552,1.501-2.223c0.595-0.672,1.254-1.241,1.976-1.711c0.723-0.468,1.495-0.829,2.318-1.083
		c0.823-0.253,1.653-0.38,2.489-0.38c2.052,0,3.609,0.761,4.674,2.28c1.063,1.521,1.596,3.775,1.596,6.764V106.74z"/>
	<path fill="#333333" d="M55.056,107.12c-1.292,0-2.508-0.272-3.647-0.816c-1.141-0.545-2.135-1.279-2.983-2.204
		s-1.52-2.008-2.014-3.249s-0.741-2.546-0.741-3.914c0-1.394,0.247-2.704,0.741-3.934c0.494-1.229,1.171-2.312,2.032-3.249
		c0.861-0.937,1.862-1.678,3.002-2.223c1.141-0.545,2.344-0.817,3.61-0.817s2.47,0.272,3.61,0.817
		c1.14,0.545,2.134,1.286,2.982,2.223c0.849,0.938,1.526,2.021,2.033,3.249c0.507,1.229,0.76,2.54,0.76,3.934
		c0,1.368-0.247,2.673-0.74,3.914c-0.494,1.241-1.166,2.324-2.015,3.249s-1.843,1.659-2.982,2.204
		C57.563,106.848,56.348,107.12,55.056,107.12z M46.43,97.013c0,1.267,0.229,2.47,0.685,3.609c0.455,1.141,1.069,2.135,1.843,2.983
		c0.772,0.849,1.678,1.52,2.717,2.014c1.038,0.494,2.153,0.741,3.344,0.741c1.165,0,2.273-0.253,3.325-0.76
		c1.051-0.507,1.976-1.19,2.774-2.053c0.798-0.86,1.425-1.861,1.881-3.002c0.456-1.14,0.684-2.355,0.684-3.647
		c0-1.267-0.228-2.47-0.684-3.61c-0.456-1.14-1.077-2.141-1.862-3.002c-0.785-0.86-1.704-1.545-2.755-2.052
		c-1.052-0.507-2.16-0.76-3.325-0.76s-2.274,0.253-3.325,0.76s-1.97,1.197-2.755,2.071s-1.406,1.887-1.861,3.04
		C46.658,94.498,46.43,95.721,46.43,97.013z"/>
	<path fill="#333333" d="M76.868,105.828c-0.38,0.254-0.729,0.443-1.045,0.57c-0.317,0.127-0.691,0.247-1.121,0.36
		c-0.432,0.114-0.912,0.172-1.444,0.172c-0.912,0-1.71-0.279-2.394-0.837c-0.685-0.557-1.026-1.292-1.026-2.203V87.778h-2.85v-0.76
		h2.85v-6.878h0.76v6.878h4.75v0.76h-4.75v16.112c0,0.734,0.278,1.298,0.836,1.69c0.558,0.394,1.165,0.589,1.824,0.589
		c0.431,0,0.836-0.044,1.216-0.133c0.38-0.088,0.716-0.189,1.007-0.304s0.52-0.222,0.685-0.323c0.164-0.101,0.259-0.164,0.285-0.189
		L76.868,105.828z"/>
	<path fill="#333333" d="M86.063,107.12c-3.065,0-5.573-1.063-7.523-3.191l0.569-0.494c1.014,0.987,2.071,1.723,3.174,2.204
		c1.102,0.481,2.361,0.722,3.78,0.722c1.951,0,3.534-0.418,4.75-1.254c1.217-0.836,1.824-2.015,1.824-3.534
		c0-0.709-0.152-1.298-0.456-1.767s-0.747-0.874-1.33-1.217c-0.583-0.342-1.305-0.633-2.166-0.874
		c-0.861-0.24-1.837-0.487-2.926-0.74c-1.064-0.253-1.989-0.488-2.774-0.703s-1.438-0.487-1.957-0.817
		c-0.52-0.329-0.911-0.741-1.178-1.235c-0.266-0.493-0.398-1.133-0.398-1.919c0-0.987,0.189-1.829,0.569-2.526
		c0.38-0.696,0.887-1.273,1.521-1.729c0.633-0.456,1.368-0.791,2.204-1.007c0.836-0.215,1.722-0.323,2.66-0.323
		c1.596,0,2.957,0.272,4.085,0.817c1.127,0.545,1.905,1.223,2.337,2.033l-0.685,0.304c-0.481-0.785-1.267-1.381-2.355-1.786
		c-1.09-0.404-2.268-0.607-3.534-0.607c-0.812,0-1.584,0.089-2.318,0.266c-0.734,0.178-1.381,0.456-1.938,0.836
		c-0.558,0.38-0.995,0.868-1.312,1.463c-0.316,0.596-0.475,1.312-0.475,2.147c0,0.659,0.107,1.196,0.323,1.614
		c0.215,0.418,0.551,0.767,1.007,1.046c0.456,0.278,1.038,0.52,1.748,0.722c0.709,0.203,1.545,0.418,2.508,0.646
		c1.165,0.279,2.223,0.546,3.173,0.799s1.748,0.569,2.395,0.949c0.646,0.38,1.146,0.843,1.501,1.388
		c0.354,0.545,0.531,1.248,0.531,2.108c0,0.861-0.177,1.641-0.531,2.337c-0.355,0.697-0.85,1.292-1.482,1.786
		c-0.634,0.494-1.406,0.874-2.318,1.141C88.153,106.987,87.152,107.12,86.063,107.12z"/>
	<path fill="#333333" d="M107.001,107.12c-0.887,0-1.723-0.133-2.508-0.398c-0.785-0.267-1.52-0.621-2.204-1.064
		c-0.684-0.443-1.305-0.963-1.861-1.558c-0.558-0.596-1.052-1.223-1.482-1.882v12.616h-0.76V87.019h0.76v4.18
		c0.405-0.658,0.898-1.26,1.482-1.805c0.582-0.545,1.209-1.02,1.881-1.426c0.671-0.404,1.374-0.715,2.108-0.931
		c0.734-0.215,1.482-0.323,2.242-0.323c1.393,0,2.673,0.299,3.838,0.894c1.165,0.596,2.166,1.374,3.002,2.337
		s1.488,2.052,1.957,3.268c0.469,1.217,0.703,2.458,0.703,3.725c0,1.343-0.222,2.628-0.665,3.856
		c-0.443,1.229-1.063,2.312-1.862,3.249c-0.798,0.938-1.761,1.686-2.888,2.242S108.369,107.12,107.001,107.12z M107.001,106.36
		c1.292,0,2.451-0.272,3.478-0.817c1.025-0.544,1.905-1.26,2.641-2.146c0.734-0.887,1.298-1.894,1.691-3.021
		c0.393-1.127,0.589-2.273,0.589-3.438c0-1.241-0.229-2.433-0.685-3.572s-1.076-2.147-1.861-3.021
		c-0.786-0.874-1.71-1.57-2.774-2.09c-1.063-0.519-2.204-0.778-3.42-0.778c-0.76,0-1.583,0.165-2.47,0.493
		c-0.888,0.33-1.71,0.773-2.47,1.33c-0.761,0.558-1.4,1.204-1.92,1.938c-0.52,0.735-0.804,1.495-0.854,2.28v7.105
		c0.354,0.812,0.811,1.564,1.368,2.261c0.557,0.697,1.184,1.299,1.881,1.806c0.696,0.507,1.45,0.912,2.261,1.216
		S106.114,106.36,107.001,106.36z"/>
	<path fill="#333333" d="M125.773,107.12c-0.887,0-1.724-0.158-2.508-0.475c-0.786-0.316-1.463-0.747-2.033-1.292
		s-1.021-1.185-1.349-1.919c-0.33-0.734-0.494-1.521-0.494-2.356s0.195-1.596,0.589-2.28c0.393-0.684,0.95-1.272,1.672-1.767
		s1.583-0.88,2.584-1.159c1-0.278,2.096-0.418,3.287-0.418c1.14,0,2.292,0.095,3.458,0.285c1.165,0.19,2.216,0.463,3.154,0.817
		v-2.242c0-1.013-0.152-1.944-0.456-2.793c-0.305-0.849-0.741-1.57-1.312-2.166c-0.57-0.595-1.254-1.058-2.052-1.388
		c-0.798-0.328-1.679-0.493-2.642-0.493s-1.988,0.209-3.077,0.627c-1.09,0.418-2.192,1.02-3.307,1.805l-0.456-0.608
		c2.533-1.722,4.813-2.584,6.84-2.584c1.09,0,2.084,0.178,2.983,0.532c0.899,0.355,1.659,0.861,2.28,1.521
		c0.62,0.659,1.102,1.457,1.443,2.394c0.343,0.938,0.514,1.989,0.514,3.154v10.906c0,0.507,0.202,0.76,0.607,0.76v0.76
		c-0.278,0-0.456-0.025-0.531-0.076c-0.254-0.101-0.456-0.285-0.608-0.551s-0.228-0.563-0.228-0.893v-1.824
		c-0.912,1.19-2.104,2.108-3.572,2.755C129.092,106.797,127.496,107.12,125.773,107.12z M125.773,106.36
		c1.697,0,3.249-0.316,4.655-0.95c1.405-0.633,2.45-1.481,3.135-2.546c0.38-0.532,0.57-1.051,0.57-1.558v-3.914
		c-2.027-0.785-4.231-1.179-6.612-1.179c-1.115,0-2.122,0.114-3.021,0.343c-0.899,0.228-1.672,0.557-2.317,0.987
		c-0.646,0.432-1.146,0.944-1.501,1.539c-0.355,0.596-0.532,1.261-0.532,1.995c0,0.735,0.146,1.425,0.437,2.071
		c0.291,0.646,0.69,1.21,1.197,1.69c0.507,0.481,1.103,0.855,1.786,1.121C124.253,106.228,124.987,106.36,125.773,106.36z"/>
	<path fill="#333333" d="M139.682,96.784c0-1.418,0.24-2.742,0.722-3.971s1.152-2.293,2.015-3.192
		c0.86-0.898,1.867-1.608,3.021-2.128c1.152-0.519,2.4-0.779,3.743-0.779c1.672,0,3.16,0.387,4.465,1.159
		c1.305,0.773,2.286,1.856,2.945,3.249l-0.761,0.267c-0.658-1.217-1.59-2.173-2.793-2.869s-2.526-1.045-3.971-1.045
		c-1.216,0-2.344,0.24-3.382,0.722c-1.039,0.481-1.951,1.14-2.736,1.976s-1.399,1.824-1.843,2.965
		c-0.443,1.14-0.665,2.355-0.665,3.647s0.229,2.521,0.685,3.687c0.455,1.165,1.083,2.185,1.881,3.059s1.716,1.564,2.755,2.071
		c1.038,0.507,2.152,0.76,3.344,0.76c0.76,0,1.526-0.114,2.299-0.342c0.772-0.229,1.482-0.532,2.128-0.912
		c0.646-0.38,1.197-0.823,1.653-1.33s0.76-1.026,0.912-1.559l0.76,0.229c-0.228,0.659-0.589,1.272-1.083,1.843
		s-1.083,1.064-1.767,1.482c-0.685,0.418-1.438,0.747-2.262,0.987c-0.823,0.241-1.666,0.361-2.526,0.361
		c-1.292,0-2.521-0.272-3.687-0.816c-1.165-0.545-2.179-1.286-3.04-2.224c-0.861-0.937-1.545-2.033-2.052-3.287
		S139.682,98.203,139.682,96.784z"/>
	<path fill="#333333" d="M169.474,107.12c-1.292,0-2.515-0.272-3.667-0.816c-1.153-0.545-2.16-1.292-3.021-2.242
		s-1.545-2.053-2.052-3.307s-0.76-2.59-0.76-4.009c0-1.393,0.24-2.698,0.722-3.914s1.146-2.28,1.995-3.191
		c0.849-0.912,1.837-1.628,2.964-2.147c1.127-0.519,2.337-0.779,3.629-0.779c1.317,0,2.552,0.267,3.705,0.799
		c1.152,0.531,2.153,1.254,3.002,2.166c0.849,0.911,1.526,1.988,2.033,3.229s0.76,2.571,0.76,3.99v0.418h-18.05
		c0.101,1.267,0.399,2.451,0.894,3.553c0.493,1.103,1.133,2.059,1.919,2.869c0.784,0.811,1.69,1.45,2.717,1.919
		c1.025,0.469,2.108,0.703,3.249,0.703c0.76,0,1.501-0.101,2.223-0.304s1.399-0.488,2.033-0.855c0.633-0.367,1.19-0.804,1.672-1.311
		s0.861-1.064,1.14-1.673l0.723,0.19c-0.279,0.684-0.679,1.311-1.197,1.881c-0.52,0.57-1.128,1.064-1.824,1.482
		c-0.697,0.418-1.457,0.747-2.279,0.987C171.177,107,170.334,107.12,169.474,107.12z M177.985,96.557
		c-0.076-1.317-0.354-2.533-0.836-3.648c-0.481-1.114-1.108-2.071-1.881-2.869c-0.773-0.798-1.666-1.425-2.679-1.881
		c-1.014-0.456-2.104-0.684-3.269-0.684s-2.255,0.228-3.268,0.684c-1.014,0.456-1.907,1.09-2.68,1.9s-1.387,1.773-1.843,2.888
		c-0.456,1.115-0.722,2.318-0.798,3.61H177.985z"/>
</g>
<rect x="55.75" fill="#ED1E79" width="65" height="65"/>
<g>
	<polygon fill="#FFFFFF" points="106.178,42.19 88.25,31.819 70.322,42.19 70.322,31.18 88.25,20.807 106.178,31.18 	"/>
</g>
<g>
</g>
<g>
</g>
<g>
</g>
<g>
</g>
<g>
</g>
<g>
</g>
<g>
</g>
<g>
</g>
<g>
</g>
<g>
</g>
<g>
</g>
<g>
</g>
<g>
</g>
<g>
</g>
<g>
</g>
</svg>
